{
  "events": [
    {
      "date": "2023-03-15",
      "time": "1430-1600 utc",
      "title": "Welcome to Plutus PBL 2023",
      "regLink": "https://us06web.zoom.us/meeting/register/tZErceCqpzMtG9XldfuPnBQEus5MBivl9OZe",
      "recordingLink": "https://www.youtube.com/live/2ACJlnUfVL4",
      "links": [],
      "description": "Meet your PPBL Team",
      "complete": true
    },
    {
      "date": "2023-03-16",
      "time": "1430-1600 utc",
      "title": "Wallet Security",
      "regLink": "https://us06web.zoom.us/meeting/register/tZErceCqpzMtG9XldfuPnBQEus5MBivl9OZe",
      "recordingLink": "https://www.youtube.com/live/2ACJlnUfVL4",
      "links": [
        "https://github.com/bitcoin/bips/tree/master/bip-0039",
        "https://github.com/jefdaj/horcrux#developer-quickstart",
        "https://www.qubes-os.org/",
        "https://www.epicbrowser.com/",
        "https://www.youtube.com/watch?v=fqrAzBAi64c"
      ],
      "description": "What are some tips for protecting your private keys?",
      "complete": true
    },
    {
      "date": "2023-03-17",
      "time": "1630-1800 utc",
      "title": "Smart Contract Gladiator",
      "regLink": "https://us06web.zoom.us/meeting/register/tZEud-2uqDMsE9K9jw8FDzrfDvHxmU7gKHdb",
      "recordingLink": "https://www.youtube.com/live/_L_W30E2KG4",
      "links": [""],
      "description": "Designing voting systems",
      "complete": true
    },
    {
      "date": "2023-03-22",
      "time": "1430-1600 utc",
      "title": "What is \"Plutus\"?",
      "regLink": "https://us06web.zoom.us/meeting/register/tZErceCqpzMtG9XldfuPnBQEus5MBivl9OZe",
      "recordingLink": "https://www.youtube.com/watch?v=wmLvRJM6x64",
      "links": ["https://nixos.wiki/wiki/Flakes"],
      "description": "Student Q&A + options for writing smart contracts",
      "complete": true
    },
    {
      "date": "2023-03-23",
      "time": "1430-1600 utc",
      "title": "Generating different CBOR for Plutus Core",
      "regLink": "https://us06web.zoom.us/meeting/register/tZErceCqpzMtG9XldfuPnBQEus5MBivl9OZe",
      "recordingLink": "https://www.youtube.com/watch?v=aRkuGj5RN60",
      "links": [""],
      "description": "Student Q&A + live demo",
      "complete": true
    },
    {
      "date": "2023-03-29",
      "time": "1430-1600 utc",
      "title": "Using Cardano CLI",
      "regLink": "https://us06web.zoom.us/meeting/register/tZErceCqpzMtG9XldfuPnBQEus5MBivl9OZe",
      "recordingLink": "https://www.youtube.com/watch?v=knAEwxvNtPI",
      "links": [""],
      "description": "Student Q&A, demo + discussion",
      "complete": true
    },
    {
      "date": "2023-03-30",
      "time": "1430-1600 utc",
      "title": "How do we create proof that you have mastered a learning target?",
      "regLink": "https://us06web.zoom.us/meeting/register/tZErceCqpzMtG9XldfuPnBQEus5MBivl9OZe",
      "recordingLink": "https://www.youtube.com/watch?v=E82zpbY7W70",
      "links": [""],
      "description": "Student Q&A + discussion",
      "complete": true
    },
    {
      "date": "2023-03-31",
      "time": "1630-1800 utc",
      "title": "Smart Contract Gladiator",
      "regLink": "https://us06web.zoom.us/meeting/register/tZEud-2uqDMsE9K9jw8FDzrfDvHxmU7gKHdb",
      "recordingLink": "https://www.youtube.com/watch?v=_1tbUuSP0go",
      "links": [""],
      "description": "Modular voting systems",
      "complete": true
    },
    {
      "date": "2023-04-05",
      "time": "1430-1600 utc",
      "title": "Module 102 Mastery Assignments",
      "regLink": "https://us06web.zoom.us/meeting/register/tZErceCqpzMtG9XldfuPnBQEus5MBivl9OZe",
      "recordingLink": "https://www.youtube.com/watch?v=FxiW2n7aM7s",
      "links": [""],
      "description": "Quick intro + breakout rooms",
      "complete": true
    },
    {
      "date": "2023-04-06",
      "time": "1430-1600 utc",
      "title": "Eternl Wallet and PPBL Front End",
      "regLink": "https://us06web.zoom.us/meeting/register/tZErceCqpzMtG9XldfuPnBQEus5MBivl9OZe",
      "recordingLink": "https://www.youtube.com/watch?v=JePFZlSHJR4",
      "links": [""],
      "description": "Changing Eternl settings and fixing Mastery Assignment #1",
      "complete": true
    },
    {
      "date": "2023-04-12",
      "time": "1430-1600 utc",
      "title": "Live Demo: Get started with NextJS and Mesh",
      "regLink": "https://us06web.zoom.us/meeting/register/tZErceCqpzMtG9XldfuPnBQEus5MBivl9OZe",
      "recordingLink": "https://www.youtube.com/watch?v=pvVO_UVzadM&t",
      "links": ["/modules/201/2011"],
      "description": "Live demonstration for Lessons 201.1 thru 201.3",
      "complete": true
    },
    {
      "date": "2023-04-13",
      "time": "1430-1600 utc",
      "title": "Live Demo: Querying the Blockchain",
      "regLink": "https://us06web.zoom.us/meeting/register/tZErceCqpzMtG9XldfuPnBQEus5MBivl9OZe",
      "recordingLink": "https://www.youtube.com/watch?v=hueJLsF_xeY",
      "links": ["/modules/201/2014"],
      "description": "Live demonstration for Lesson 201.4",
      "complete": true
    },
    {
      "date": "2023-04-19",
      "time": "1430-1600 utc",
      "title": "Onboarding and Building Background Knowledge",
      "regLink": "https://us06web.zoom.us/meeting/register/tZErceCqpzMtG9XldfuPnBQEus5MBivl9OZe",
      "recordingLink": "https://www.youtube.com/watch?v=SpouIZTiqyo",
      "links": [],
      "description": "Breakout Rooms for Modules 100-201",
      "complete": true
    },
    {
      "date": "2023-04-20",
      "time": "1430-1600 utc",
      "title": "Module 202: Three Ways to Mint a Token",
      "regLink": "https://us06web.zoom.us/meeting/register/tZErceCqpzMtG9XldfuPnBQEus5MBivl9OZe",
      "recordingLink": "https://www.youtube.com/watch?v=MVeAm_i4uI4",
      "links": [],
      "description": "Breakout Rooms for Modules 100-201",
      "complete": true
    },

    {
      "date": "2023-04-26",
      "time": "1430-1600 utc",
      "title": "PPBL Live Coding - Breakout Rooms",
      "regLink": "https://us06web.zoom.us/meeting/register/tZErceCqpzMtG9XldfuPnBQEus5MBivl9OZe",
      "recordingLink": "https://www.youtube.com/watch?v=3TW3R4HOvHg",
      "links": [],
      "description": "Bring your questions about Modules 100-202",
      "complete": true
    },
    {
      "date": "2023-04-27",
      "time": "1430-1600 utc",
      "title": "PPBL Live Coding - Breakout Rooms",
      "regLink": "https://us06web.zoom.us/meeting/register/tZErceCqpzMtG9XldfuPnBQEus5MBivl9OZe",
      "recordingLink": "https://www.youtube.com/watch?v=BE00UyI1mno",
      "links": [],
      "description": "Bring your questions about Modules 100-202",
      "complete": true
    },
    {
      "date": "2023-05-02",
      "time": "1430-1600 utc",
      "title": "GameChanger Live Coding",
      "regLink": "https://us06web.zoom.us/meeting/register/tZErdOuvrTgtG9KX9xBeqE5gb1wFcLot6tpK",
      "recordingLink": "",
      "links": [],
      "description": "Introducing GameChanger Live Coding!",
      "complete": false
    },
    {
      "date": "2023-05-03",
      "time": "1430-1600 utc",
      "title": "PPBL Live Coding - Breakout Rooms",
      "regLink": "https://us06web.zoom.us/meeting/register/tZErceCqpzMtG9XldfuPnBQEus5MBivl9OZe",
      "recordingLink": "",
      "links": [],
      "description": "Bring your questions about Modules 100-203",
      "complete": false
    },
    {
      "date": "2023-05-04",
      "time": "1430-1600 utc",
      "title": "PPBL Live Coding - Breakout Rooms",
      "regLink": "https://us06web.zoom.us/meeting/register/tZErceCqpzMtG9XldfuPnBQEus5MBivl9OZe",
      "recordingLink": "",
      "links": [],
      "description": "Bring your questions about Modules 100-203",
      "complete": false
    },
    {
      "date": "2023-05-09",
      "time": "1430-1600 utc",
      "title": "GameChanger Live Coding",
      "regLink": "https://us06web.zoom.us/meeting/register/tZErdOuvrTgtG9KX9xBeqE5gb1wFcLot6tpK",
      "recordingLink": "",
      "links": [],
      "description": "Agenda TBD",
      "complete": false
    },
    {
      "date": "2023-05-10",
      "time": "1430-1600 utc",
      "title": "PPBL Live Coding - Breakout Rooms",
      "regLink": "https://us06web.zoom.us/meeting/register/tZErceCqpzMtG9XldfuPnBQEus5MBivl9OZe",
      "recordingLink": "",
      "links": [],
      "description": "Bring your questions about Modules 100-203",
      "complete": false
    },
    {
      "date": "2023-05-11",
      "time": "1430-1600 utc",
      "title": "PPBL Live Coding - Breakout Rooms",
      "regLink": "https://us06web.zoom.us/meeting/register/tZErceCqpzMtG9XldfuPnBQEus5MBivl9OZe",
      "recordingLink": "",
      "links": [],
      "description": "Bring your questions about Modules 100-203",
      "complete": false
    }
  ]
}
