cardano-cli transaction build \
--babbage-era \
--testnet-magic 1 \
--tx-in $UTXO_IN \
--tx-out $SENDERADDRESS+8500000 \
--tx-out $SENDERADDRESS+8500000 \
--tx-out $SENDERADDRESS+8500000 \
--tx-out $SENDERADDRESS+8500000 \
--tx-out $SENDERADDRESS+8500000 \
--tx-out $SENDERADDRESS+8500000 \
--tx-out $SENDERADDRESS+8500000 \
--tx-out $SENDERADDRESS+8500000 \
--tx-out $SENDERADDRESS+8500000 \
--tx-out $SENDERADDRESS+8500000 \
--tx-out $SENDERADDRESS+8500000 \
--tx-out $SENDERADDRESS+8500000 \
--tx-out $SENDERADDRESS+8500000 \
--change-address $SENDERADDRESS \
--out-file simple-tx.raw